{
	"commentStamp" : "JP 12/20/2018 11:09",
	"super" : "Object",
	"category" : "OOP-CAD-ParserCombinator",
	"classinstvars" : [ ],
	"pools" : [ ],
	"classvars" : [ ],
	"instvars" : [
		"remainder"
	],
	"name" : "ParseResult",
	"type" : "normal"
}