{
	"commentStamp" : "JP 12/17/2018 23:01",
	"super" : "CadParser",
	"category" : "OOP-CAD-ParserCombinator",
	"classinstvars" : [ ],
	"pools" : [ ],
	"classvars" : [ ],
	"instvars" : [ ],
	"name" : "WordParser",
	"type" : "normal"
}