{
	"commentStamp" : "JP 12/16/2018 11:11",
	"super" : "CadParser",
	"category" : "OOP-CAD-ParserCombinator",
	"classinstvars" : [ ],
	"pools" : [ ],
	"classvars" : [ ],
	"instvars" : [ ],
	"name" : "SpaceParser",
	"type" : "normal"
}