{
	"commentStamp" : "JP 12/16/2018 13:14",
	"super" : "TestCase",
	"category" : "OOP-CAD-ParserCombinator-tests",
	"classinstvars" : [ ],
	"pools" : [ ],
	"classvars" : [ ],
	"instvars" : [ ],
	"name" : "CadObjectsTest",
	"type" : "normal"
}