{
	"commentStamp" : "JP 12/11/2018 23:35",
	"super" : "CadParser",
	"category" : "OOP-CAD-ParserCombinator",
	"classinstvars" : [ ],
	"pools" : [ ],
	"classvars" : [ ],
	"instvars" : [ ],
	"name" : "AbsolutePointParser",
	"type" : "normal"
}