{
	"commentStamp" : "JP 12/25/2018 10:22",
	"super" : "Object",
	"category" : "OOP-CAD-Commands",
	"classinstvars" : [ ],
	"pools" : [ ],
	"classvars" : [ ],
	"instvars" : [
		"position",
		"commands"
	],
	"name" : "CommandHandler",
	"type" : "normal"
}