{
	"commentStamp" : "JP 12/15/2018 21:13",
	"super" : "CadParser",
	"category" : "OOP-CAD-ParserCombinator",
	"classinstvars" : [ ],
	"pools" : [ ],
	"classvars" : [ ],
	"instvars" : [ ],
	"name" : "PointParser",
	"type" : "normal"
}