{
	"commentStamp" : "JP 12/11/2018 23:43",
	"super" : "Object",
	"category" : "OOP-CAD-ParserCombinator",
	"classinstvars" : [ ],
	"pools" : [ ],
	"classvars" : [ ],
	"instvars" : [ ],
	"name" : "ParseResultFactory",
	"type" : "normal"
}