{
	"commentStamp" : "JP 12/16/2018 09:32",
	"super" : "CadObject",
	"category" : "OOP-CAD-Shapes",
	"classinstvars" : [ ],
	"pools" : [ ],
	"classvars" : [ ],
	"instvars" : [
		"point"
	],
	"name" : "CadAbsolutePoint",
	"type" : "normal"
}