{
	"commentStamp" : "JP 12/18/2018 14:59",
	"super" : "CadShape",
	"category" : "OOP-CAD-Shapes",
	"classinstvars" : [ ],
	"pools" : [ ],
	"classvars" : [ ],
	"instvars" : [
		"startPoint",
		"points"
	],
	"name" : "CadLine",
	"type" : "normal"
}