{
	"commentStamp" : "<historical>",
	"super" : "TestCase",
	"category" : "OOP-CAD-Commands-Tests",
	"classinstvars" : [ ],
	"pools" : [ ],
	"classvars" : [ ],
	"instvars" : [ ],
	"name" : "CadShapeCommandTest",
	"type" : "normal"
}