{
	"commentStamp" : "JP 12/23/2018 19:06",
	"super" : "CadObject",
	"category" : "OOP-CAD-Commands",
	"classinstvars" : [ ],
	"pools" : [ ],
	"classvars" : [ ],
	"instvars" : [
		"context"
	],
	"name" : "CadCommand",
	"type" : "normal"
}