{
	"commentStamp" : "JindrichZak 12/27/2018 16:07",
	"super" : "Object",
	"category" : "OOP-CAD-Model",
	"classinstvars" : [ ],
	"pools" : [ ],
	"classvars" : [ ],
	"instvars" : [
		"elementsShapes",
		"announcer"
	],
	"name" : "CadModel",
	"type" : "normal"
}