{
	"commentStamp" : "JP 12/16/2018 10:54",
	"super" : "CadCommandParser",
	"category" : "OOP-CAD-ParserCombinator",
	"classinstvars" : [ ],
	"pools" : [ ],
	"classvars" : [ ],
	"instvars" : [ ],
	"name" : "CadClearParser",
	"type" : "normal"
}